SystemC_FIFO_Template_Inherit/fifo_waveform.vcd
$date
     Jun 22, 2017       23:46:53
$end

$version
 SystemC 2.3.1-Accellera --- Feb 21 2017 23:45:35
$end

$timescale
     1 ps
$end

$scope module SystemC $end
$var wire    1  aaaaa  clock       $end
$var wire    1  aaaab  sreset_n       $end
$var wire   32  aaaac  data_in [31:0]  $end
$var wire   32  aaaad  data_out [31:0]  $end
$var wire    1  aaaae  push       $end
$var wire    1  aaaaf  pop       $end
$var wire    1  aaaag  empty       $end
$var wire    1  aaaah  full       $end
$var wire    1  aaaai  almost_empty       $end
$var wire    1  aaaaj  almost_full       $end
$upscope $end
$enddefinitions  $end

$comment
All initial values are dumped below at time 0 sec = 0 timescale units.
$end

$dumpvars
1aaaaa
0aaaab
b0 aaaac
b0 aaaad
0aaaae
0aaaaf
1aaaag
0aaaah
0aaaai
0aaaaj
$end

#2500
0aaaaa

#5000
1aaaaa
1aaaab

#7500
0aaaaa

#9000
b1100001 aaaac
1aaaae

#10000
1aaaaa
0aaaag
1aaaai

#12500
0aaaaa

#14000
b1100010 aaaac

#15000
1aaaaa
0aaaai

#17500
0aaaaa

#19000
b1100011 aaaac

#20000
1aaaaa

#22500
0aaaaa

#24000
b1100100 aaaac

#25000
1aaaaa

#27500
0aaaaa

#29000
b1100101 aaaac

#30000
1aaaaa

#32500
0aaaaa

#34000
b1100110 aaaac

#35000
1aaaaa

#37500
0aaaaa

#39000
b1100111 aaaac

#40000
1aaaaa

#42500
0aaaaa

#44000
b1101000 aaaac

#45000
1aaaaa

#47500
0aaaaa

#49000
b1101001 aaaac

#50000
1aaaaa
1aaaaj

#52500
0aaaaa

#54000
b1101010 aaaac

#55000
1aaaaa
1aaaah
0aaaaj

#57500
0aaaaa

#59000
b1101011 aaaac

#60000
1aaaaa

#62500
0aaaaa

#64000
0aaaae
1aaaaf

#65000
1aaaaa
b1100001 aaaad
0aaaah
1aaaaj

#67500
0aaaaa

#70000
1aaaaa
b1100010 aaaad
0aaaaj

#72500
0aaaaa

#75000
1aaaaa
b1100011 aaaad

#77500
0aaaaa

#80000
1aaaaa
b1100100 aaaad

#82500
0aaaaa

#85000
1aaaaa
b1100101 aaaad

#87500
0aaaaa

#90000
1aaaaa
b1100110 aaaad

#92500
0aaaaa

#95000
1aaaaa
b1100111 aaaad

#97500
0aaaaa

#100000
1aaaaa
b1101000 aaaad

#102500
0aaaaa

#105000
1aaaaa
b1101001 aaaad
1aaaai

#107500
0aaaaa

#110000
1aaaaa
b1101010 aaaad
1aaaag
0aaaai

#112500
0aaaaa

#115000
1aaaaa

#117500
0aaaaa

#119000
b1100110 aaaac
1aaaae
0aaaaf

#120000
1aaaaa
0aaaag
1aaaai

#122500
0aaaaa

#124000
b1100111 aaaac
1aaaaf

#125000
1aaaaa
b1100110 aaaad

#127500
0aaaaa

#129000
b1101000 aaaac

#130000
1aaaaa
b1100111 aaaad

#132500
0aaaaa

#134000
b1101001 aaaac

#135000
1aaaaa
b1101000 aaaad

#137500
0aaaaa

#139000
b1101010 aaaac

#140000
1aaaaa
b1101001 aaaad

#142500
0aaaaa

#144000
b1101011 aaaac

#145000
1aaaaa
b1101010 aaaad

#147500
0aaaaa

#149000
b1101100 aaaac

#150000
1aaaaa
b1101011 aaaad

#152500
0aaaaa

#154000
b1101101 aaaac

#155000
1aaaaa
b1101100 aaaad

#157500
0aaaaa

#159000
b1101110 aaaac

#160000
1aaaaa
b1101101 aaaad

#162500
0aaaaa

#164000
b1101111 aaaac

#165000
1aaaaa
b1101110 aaaad

#167500
0aaaaa

#169000
b1110000 aaaac
0aaaae

#170000
1aaaaa
b1101111 aaaad
1aaaag
0aaaai

