SystemC_FIFO/fifo_waveform.vcd
$date
     Mar 31, 2017       11:42:18
$end

$version
 SystemC 2.3.1-Accellera --- Feb 21 2017 23:45:35
$end

$timescale
     1 ps
$end

$scope module SystemC $end
$var wire    1  aaaaa  clock       $end
$var wire    1  aaaab  sreset_n       $end
$var wire    8  aaaac  data_in [7:0]  $end
$var wire    8  aaaad  data_out [7:0]  $end
$var wire    1  aaaae  push       $end
$var wire    1  aaaaf  pop       $end
$var wire    1  aaaag  empty       $end
$var wire    1  aaaah  full       $end
$upscope $end
$enddefinitions  $end

$comment
All initial values are dumped below at time 0 sec = 0 timescale units.
$end

$dumpvars
1aaaaa
0aaaab
b0 aaaac
b0 aaaad
0aaaae
0aaaaf
1aaaag
0aaaah
$end

#2500
0aaaaa

#5000
1aaaaa
1aaaab

#7500
0aaaaa

#9000
b1100001 aaaac
1aaaae

#10000
1aaaaa
0aaaag

#12500
0aaaaa

#14000
b1100010 aaaac

#15000
1aaaaa

#17500
0aaaaa

#19000
b1100011 aaaac

#20000
1aaaaa

#22500
0aaaaa

#24000
b1100100 aaaac

#25000
1aaaaa

#27500
0aaaaa

#29000
b1100101 aaaac

#30000
1aaaaa

#32500
0aaaaa

#34000
b1100110 aaaac

#35000
1aaaaa

#37500
0aaaaa

#39000
b1100111 aaaac

#40000
1aaaaa

#42500
0aaaaa

#44000
b1101000 aaaac

#45000
1aaaaa

#47500
0aaaaa

#49000
b1101001 aaaac

#50000
1aaaaa

#52500
0aaaaa

#54000
b1101010 aaaac

#55000
1aaaaa

#57500
0aaaaa

#59000
b1101011 aaaac

#60000
1aaaaa

#62500
0aaaaa

#64000
b1101100 aaaac

#65000
1aaaaa

#67500
0aaaaa

#69000
b1101101 aaaac

#70000
1aaaaa

#72500
0aaaaa

#74000
b1101110 aaaac

#75000
1aaaaa

#77500
0aaaaa

#79000
b1101111 aaaac

#80000
1aaaaa
1aaaah

#82500
0aaaaa

#84000
b1110000 aaaac

#85000
1aaaaa

#87500
0aaaaa

#89000
0aaaae
1aaaaf

#90000
1aaaaa
b1100001 aaaad
0aaaah

#92500
0aaaaa

#95000
1aaaaa
b1100010 aaaad

#97500
0aaaaa

#100000
1aaaaa
b1100011 aaaad

#102500
0aaaaa

#105000
1aaaaa
b1100100 aaaad

#107500
0aaaaa

#110000
1aaaaa
b1100101 aaaad

#112500
0aaaaa

#115000
1aaaaa
b1100110 aaaad

#117500
0aaaaa

#120000
1aaaaa
b1100111 aaaad

#122500
0aaaaa

#125000
1aaaaa
b1101000 aaaad

#127500
0aaaaa

#130000
1aaaaa
b1101001 aaaad

#132500
0aaaaa

#135000
1aaaaa
b1101010 aaaad

#137500
0aaaaa

#140000
1aaaaa
b1101011 aaaad

#142500
0aaaaa

#145000
1aaaaa
b1101100 aaaad

#147500
0aaaaa

#150000
1aaaaa
b1101101 aaaad

#152500
0aaaaa

#155000
1aaaaa
b1101110 aaaad

#157500
0aaaaa

#160000
1aaaaa
b1101111 aaaad
1aaaag

#162500
0aaaaa

#165000
1aaaaa

#167500
0aaaaa

#169000
b1100110 aaaac
1aaaae
0aaaaf

#170000
1aaaaa
0aaaag

#172500
0aaaaa

#174000
b1100111 aaaac
1aaaaf

#175000
1aaaaa
b1100110 aaaad

#177500
0aaaaa

#179000
b1101000 aaaac

#180000
1aaaaa
b1100111 aaaad

#182500
0aaaaa

#184000
b1101001 aaaac

#185000
1aaaaa
b1101000 aaaad

#187500
0aaaaa

#189000
b1101010 aaaac

#190000
1aaaaa
b1101001 aaaad

#192500
0aaaaa

#194000
b1101011 aaaac

#195000
1aaaaa
b1101010 aaaad

#197500
0aaaaa

#199000
b1101100 aaaac

#200000
1aaaaa
b1101011 aaaad

#202500
0aaaaa

#204000
b1101101 aaaac

#205000
1aaaaa
b1101100 aaaad

#207500
0aaaaa

#209000
b1101110 aaaac

#210000
1aaaaa
b1101101 aaaad

#212500
0aaaaa

#214000
b1101111 aaaac

#215000
1aaaaa
b1101110 aaaad

#217500
0aaaaa

#219000
b1110000 aaaac

#220000
1aaaaa
b1101111 aaaad

#222500
0aaaaa

#224000
b1110001 aaaac

#225000
1aaaaa
b1110000 aaaad

#227500
0aaaaa

#229000
b1110010 aaaac

#230000
1aaaaa
b1110001 aaaad

#232500
0aaaaa

#234000
b1110011 aaaac

#235000
1aaaaa
b1110010 aaaad

#237500
0aaaaa

#239000
b1110100 aaaac

#240000
1aaaaa
b1110011 aaaad

#242500
0aaaaa

#244000
b1110101 aaaac
0aaaae

#245000
1aaaaa
b1110100 aaaad
1aaaag

